3.778528956996437;56.73505711555481
3.743154097254379;170.05351614952087
3.7070879914760035;282.67770195007324
3.699521882120891;446.97491693496704
3.5993273585296364;501.6233241558075
3.5746019227979002;556.4290180206299
