miscData,,,
mode,numCalls,
batch,834
,
timestamps,,,
simStartTime,warmUpEndTime,lastCallArrivalTime,simEndTime,
0.0,0.0,0.9939236111111112,1.0367603343694665
,
periods,,,
periodIndex,startTime,endTime,duration,
1.0,0.0,1.0367603343694665,1.0367603343694665
,
call,,,
periodIndex,numCalls,numQueued,numBumped,numBumps,numTransports,numResponsesInTime,totalDispatchDelay,totalOnSceneDuration,totalHandoverDuration,totalQueuedDuration,totalBumpedDuration,totalWaitingForAmbDuration,totalResponseDuration,totalAmbGoingToCallDuration,totalTransportDuration,totalServiceDuration,
1,834,41,55,67,834,829,0.4826388888888929,6.976712191972349,7.283041001151151,0.06417256080262984,0.10650147547126643,2.1262678138051414,2.673079263496671,2.0197663383338766,1.6042122865966895,18.537044743216875
,
callPriorities[highPriority],,,
periodIndex,numCalls,numQueued,numBumped,numBumps,numTransports,numResponsesInTime,totalDispatchDelay,totalOnSceneDuration,totalHandoverDuration,totalQueuedDuration,totalBumpedDuration,totalWaitingForAmbDuration,totalResponseDuration,totalAmbGoingToCallDuration,totalTransportDuration,totalServiceDuration,
1,231,0,0,0,231,230,0.13368055555555522,1.951451165487002,1.9614093759128102,0.0,0.0,0.5684017969694688,0.7020823525250269,0.5684017969694688,0.4461540698743214,5.0610969637991605
,
callPriorities[medPriority],,,
periodIndex,numCalls,numQueued,numBumped,numBumps,numTransports,numResponsesInTime,totalDispatchDelay,totalOnSceneDuration,totalHandoverDuration,totalQueuedDuration,totalBumpedDuration,totalWaitingForAmbDuration,totalResponseDuration,totalAmbGoingToCallDuration,totalTransportDuration,totalServiceDuration,
1,0,0,0,0,0,0,0.0,0.0,0.0,0.0,0.0,0.0,0.0,0.0,0.0,0.0
,
callPriorities[lowPriority],,,
periodIndex,numCalls,numQueued,numBumped,numBumps,numTransports,numResponsesInTime,totalDispatchDelay,totalOnSceneDuration,totalHandoverDuration,totalQueuedDuration,totalBumpedDuration,totalWaitingForAmbDuration,totalResponseDuration,totalAmbGoingToCallDuration,totalTransportDuration,totalServiceDuration,
1,603,41,55,67,603,599,0.34895833333333354,5.025261026485346,5.321631625238341,0.06417256080262984,0.10650147547126643,1.5578660168356744,1.9709969109716439,1.4513645413644078,1.1580582167223665,13.475947779417707
,
responseDurationHist_params,,,
binWidth,binEdges,
0.0006944444444444445,0.0:0.0006944444444444445:0.019444444444444445
,
call.responseDurationHist,,,
periodIndex,0.0,0.0006944444444444445,0.001388888888888889,0.0020833333333333333,0.002777777777777778,0.003472222222222222,0.004166666666666667,0.004861111111111111,0.005555555555555556,0.00625,0.006944444444444444,0.007638888888888889,0.008333333333333333,0.009027777777777777,0.009722222222222222,0.010416666666666666,0.011111111111111112,0.011805555555555555,0.0125,0.013194444444444444,0.013888888888888888,0.014583333333333334,0.015277777777777777,0.01597222222222222,0.016666666666666666,0.017361111111111112,0.018055555555555554,0.01875,
1,0,96,125,190,136,106,62,42,26,15,12,8,4,6,2,2,0,1,0,0,0,0,0,0,0,0,0,1
,
callPriorities[highPriority].responseDurationHist,,,
periodIndex,0.0,0.0006944444444444445,0.001388888888888889,0.0020833333333333333,0.002777777777777778,0.003472222222222222,0.004166666666666667,0.004861111111111111,0.005555555555555556,0.00625,0.006944444444444444,0.007638888888888889,0.008333333333333333,0.009027777777777777,0.009722222222222222,0.010416666666666666,0.011111111111111112,0.011805555555555555,0.0125,0.013194444444444444,0.013888888888888888,0.014583333333333334,0.015277777777777777,0.01597222222222222,0.016666666666666666,0.017361111111111112,0.018055555555555554,0.01875,
1,0,26,30,54,47,35,17,10,5,4,0,2,1,0,0,0,0,0,0,0,0,0,0,0,0,0,0,0
,
callPriorities[medPriority].responseDurationHist,,,
periodIndex,0.0,0.0006944444444444445,0.001388888888888889,0.0020833333333333333,0.002777777777777778,0.003472222222222222,0.004166666666666667,0.004861111111111111,0.005555555555555556,0.00625,0.006944444444444444,0.007638888888888889,0.008333333333333333,0.009027777777777777,0.009722222222222222,0.010416666666666666,0.011111111111111112,0.011805555555555555,0.0125,0.013194444444444444,0.013888888888888888,0.014583333333333334,0.015277777777777777,0.01597222222222222,0.016666666666666666,0.017361111111111112,0.018055555555555554,0.01875,
1,0,0,0,0,0,0,0,0,0,0,0,0,0,0,0,0,0,0,0,0,0,0,0,0,0,0,0,0
,
callPriorities[lowPriority].responseDurationHist,,,
periodIndex,0.0,0.0006944444444444445,0.001388888888888889,0.0020833333333333333,0.002777777777777778,0.003472222222222222,0.004166666666666667,0.004861111111111111,0.005555555555555556,0.00625,0.006944444444444444,0.007638888888888889,0.008333333333333333,0.009027777777777777,0.009722222222222222,0.010416666666666666,0.011111111111111112,0.011805555555555555,0.0125,0.013194444444444444,0.013888888888888888,0.014583333333333334,0.015277777777777777,0.01597222222222222,0.016666666666666666,0.017361111111111112,0.018055555555555554,0.01875,
1,0,70,95,136,89,71,45,32,21,11,12,6,3,6,2,2,0,1,0,0,0,0,0,0,0,0,0,1
,
