hospitals,,,
index,x,y,attributes,numCalls,
1,-0.36122,39.478963,{},268
2,-0.393716,39.452535,{},133
3,-0.40836,39.46837,{},86
4,-0.376228,39.443642,{},84
5,-0.32536,39.47521,{},81
6,-0.45264,39.48554,{},90
7,-0.40332,39.49085,{},92
8,-0.6192,39.64089,{},0
9,-0.23105,39.67438,{},0
,
