misc,,,
conf,numPeriods,periodDuration,
0.95,1.0,1.0367603343694665
,
statsDict,,,
stat,mean,halfWidth,
ambs_avgDailyAtCallDurationHours,5.569108489354807,NaN
ambs_avgDailyAtHospitalDurationHours,5.813633177315216,NaN
ambs_avgDailyBusyDurationHours,14.360569592612269,NaN
ambs_avgDailyFreeDurationHours,9.639430407387724,NaN
ambs_avgDailyGoingToCallDistanceKms,124560.59050264914,NaN
ambs_avgDailyGoingToCallDurationHours,1.6972774290631134,NaN
ambs_avgDailyGoingToHospitalDistanceKms,99255.36534379495,NaN
ambs_avgDailyGoingToHospitalDurationHours,1.2805504968791341,NaN
ambs_avgDailyGoingToStationDurationHours,1.4587399617377392,NaN
ambs_avgDailyIdleAtStationDurationHours,8.18069044564999,NaN
ambs_avgDailyMobilisingDurationHours,0.0,NaN
ambs_avgDailyMovingUpToStationDistanceKms,0.0,NaN
ambs_avgDailyMovingUpToStationDurationHours,0.0,NaN
ambs_avgDailyNumCallsTransported,27.73892840638574,NaN
ambs_avgDailyNumCallsTreated,27.73892840638574,NaN
ambs_avgDailyNumDispatches,29.9673555085774,NaN
ambs_avgDailyNumDispatchesFromStation,15.632249821344482,NaN
ambs_avgDailyNumDispatchesOnFree,1.5299648761315876,NaN
ambs_avgDailyNumDispatchesOnRoad,12.80514081110133,NaN
ambs_avgDailyNumMoveUps,0.0,NaN
ambs_avgDailyNumMoveUpsFromStation,0.0,NaN
ambs_avgDailyNumMoveUpsOnFree,0.0,NaN
ambs_avgDailyNumMoveUpsOnRoad,0.0,NaN
ambs_avgDailyNumMoveUpsReturnToPrevStation,0.0,NaN
ambs_avgDailyNumRedispatches,2.22842710219166,NaN
ambs_avgDailyReturningToStationDistanceKms,118597.97692213864,NaN
ambs_avgDailyReturningToStationDurationHours,1.4587399617377392,NaN
ambs_avgDailySleepingDurationHours,0.0,NaN
ambs_avgDailyTravelDistanceKms,342413.93276858283,NaN
ambs_avgDailyTravelDurationHours,4.436567887679987,NaN
ambs_avgDailyWorkingDurationHours,24.000000000000014,NaN
calls_all_avgAmbGoingToCallDurationMinutes,3.4873663395692835,NaN
calls_all_avgBumpedDurationMinutes,2.7884022668840664,NaN
calls_all_avgDailyNumCalls,804.4289237851865,NaN
calls_all_avgDispatchDelayMinutes,0.8333333333333404,NaN
calls_all_avgHandoverDurationMinutes,12.575034822131483,NaN
calls_all_avgNumBumps,0.0803357314148681,NaN
calls_all_avgOnSceneDurationMinutes,12.04612177031197,NaN
calls_all_avgQueuedDurationMinutes,2.2538655501411458,NaN
calls_all_avgResponseDurationMinutes,4.61538865639713,NaN
calls_all_avgServiceDurationMinutes,32.00640818972698,NaN
calls_all_avgTransportDurationMinutes,2.7698629408863704,NaN
calls_all_avgWaitingForAmbDurationMinutes,3.671253779231899,NaN
calls_all_fracBumped,0.06594724220623502,NaN
calls_all_fracQueued,0.049160671462829736,NaN
calls_all_fracResponsesInTime,0.9940047961630696,NaN
calls_all_fracTransported,1.0,NaN
calls_highPriority_avgAmbGoingToCallDurationMinutes,3.543283929160325,NaN
calls_highPriority_avgBumpedDurationMinutes,NaN,NaN
calls_highPriority_avgDailyNumCalls,222.80945011316317,NaN
calls_highPriority_avgDispatchDelayMinutes,0.8333333333333313,NaN
calls_highPriority_avgHandoverDurationMinutes,12.226967538157778,NaN
calls_highPriority_avgNumBumps,0.0,NaN
calls_highPriority_avgOnSceneDurationMinutes,12.164890382256635,NaN
calls_highPriority_avgQueuedDurationMinutes,NaN,NaN
calls_highPriority_avgResponseDurationMinutes,4.376617262493674,NaN
calls_highPriority_avgServiceDurationMinutes,31.549695358748018,NaN
calls_highPriority_avgTransportDurationMinutes,2.7812201758399255,NaN
calls_highPriority_avgWaitingForAmbDurationMinutes,3.543283929160325,NaN
calls_highPriority_fracBumped,0.0,NaN
calls_highPriority_fracQueued,0.0,NaN
calls_highPriority_fracResponsesInTime,0.9956709956709957,NaN
calls_highPriority_fracTransported,1.0,NaN
calls_lowPriority_avgAmbGoingToCallDurationMinutes,3.4659451734075413,NaN
calls_lowPriority_avgBumpedDurationMinutes,2.7884022668840664,NaN
calls_lowPriority_avgDailyNumCalls,581.6194736720233,NaN
calls_lowPriority_avgDispatchDelayMinutes,0.8333333333333337,NaN
calls_lowPriority_avgHandoverDurationMinutes,12.708374030419918,NaN
calls_lowPriority_avgNumBumps,0.1111111111111111,NaN
calls_lowPriority_avgOnSceneDurationMinutes,12.000623346830677,NaN
calls_lowPriority_avgQueuedDurationMinutes,2.2538655501411458,NaN
calls_lowPriority_avgResponseDurationMinutes,4.706858294857657,NaN
calls_lowPriority_avgServiceDurationMinutes,32.18136783144527,NaN
calls_lowPriority_avgTransportDurationMinutes,2.765512159336995,NaN
calls_lowPriority_avgWaitingForAmbDurationMinutes,3.7202770551299684,NaN
calls_lowPriority_fracBumped,0.0912106135986733,NaN
calls_lowPriority_fracQueued,0.06799336650082918,NaN
calls_lowPriority_fracResponsesInTime,0.9933665008291874,NaN
calls_lowPriority_fracTransported,1.0,NaN
calls_medPriority_avgAmbGoingToCallDurationMinutes,NaN,NaN
calls_medPriority_avgBumpedDurationMinutes,NaN,NaN
calls_medPriority_avgDailyNumCalls,0.0,NaN
calls_medPriority_avgDispatchDelayMinutes,NaN,NaN
calls_medPriority_avgHandoverDurationMinutes,NaN,NaN
calls_medPriority_avgNumBumps,NaN,NaN
calls_medPriority_avgOnSceneDurationMinutes,NaN,NaN
calls_medPriority_avgQueuedDurationMinutes,NaN,NaN
calls_medPriority_avgResponseDurationMinutes,NaN,NaN
calls_medPriority_avgServiceDurationMinutes,NaN,NaN
calls_medPriority_avgTransportDurationMinutes,NaN,NaN
calls_medPriority_avgWaitingForAmbDurationMinutes,NaN,NaN
calls_medPriority_fracBumped,NaN,NaN
calls_medPriority_fracQueued,NaN,NaN
calls_medPriority_fracResponsesInTime,NaN,NaN
calls_medPriority_fracTransported,NaN,NaN
,
